[
    {
        "name": "icao_code",
        "dbType": "string,4",
        "htmlType": "text",
        "validations": null,
        "searchable": false,
        "fillable": false,
        "primary": true,
        "inForm": false,
        "inIndex": false,
        "inView": false
    },
    {
        "name": "country_id",
        "dbType": "integer,false",
        "htmlType": null,
        "validations": "nullable|integer",
        "searchable": true,
        "fillable": true,
        "primary": false,
        "inForm": true,
        "inIndex": true,
        "inView": true
    },
    {
        "name": "iata_code",
        "dbType": "string,255:nullable",
        "htmlType": "text",
        "validations": "nullable|string|max:255",
        "searchable": true,
        "fillable": true,
        "primary": false,
        "inForm": true,
        "inIndex": true,
        "inView": true
    },
    {
        "name": "airport_name",
        "dbType": "string,255:nullable",
        "htmlType": "text",
        "validations": "nullable|string|max:255",
        "searchable": true,
        "fillable": true,
        "primary": false,
        "inForm": true,
        "inIndex": true,
        "inView": true
    },
    {
        "name": "latitude",
        "dbType": "decimal,10,8",
        "htmlType": null,
        "validations": "nullable|numeric",
        "searchable": true,
        "fillable": true,
        "primary": false,
        "inForm": true,
        "inIndex": true,
        "inView": true
    },
    {
        "name": "longitude",
        "dbType": "decimal,11,8",
        "htmlType": null,
        "validations": "nullable|numeric",
        "searchable": true,
        "fillable": true,
        "primary": false,
        "inForm": true,
        "inIndex": true,
        "inView": true
    },
    {
        "name": "pcn",
        "dbType": "string,50:nullable",
        "htmlType": "text",
        "validations": "nullable|string|max:50",
        "searchable": true,
        "fillable": true,
        "primary": false,
        "inForm": true,
        "inIndex": true,
        "inView": true
    },
    {
        "name": "runway_length",
        "dbType": "integer,false",
        "htmlType": null,
        "validations": "nullable|integer",
        "searchable": true,
        "fillable": true,
        "primary": false,
        "inForm": true,
        "inIndex": true,
        "inView": true
    },
    {
        "name": "operation_time",
        "dbType": "string,45:nullable",
        "htmlType": "text",
        "validations": "nullable|string|max:45",
        "searchable": true,
        "fillable": true,
        "primary": false,
        "inForm": true,
        "inIndex": true,
        "inView": true
    },
    {
        "name": "geoname_id",
        "dbType": "integer,false",
        "htmlType": null,
        "validations": "nullable|integer",
        "searchable": true,
        "fillable": true,
        "primary": false,
        "inForm": true,
        "inIndex": true,
        "inView": true
    },
    {
        "name": "phone_number",
        "dbType": "string,255:nullable",
        "htmlType": "text",
        "validations": "nullable|string|max:255",
        "searchable": true,
        "fillable": true,
        "primary": false,
        "inForm": true,
        "inIndex": true,
        "inView": true
    },
    {
        "name": "timezone_id",
        "dbType": "integer,false",
        "htmlType": null,
        "validations": "nullable|integer",
        "searchable": true,
        "fillable": true,
        "primary": false,
        "inForm": true,
        "inIndex": true,
        "inView": true
    },
    {
        "name": "city_id",
        "dbType": "integer,false",
        "htmlType": null,
        "validations": "nullable|integer",
        "searchable": true,
        "fillable": true,
        "primary": false,
        "inForm": true,
        "inIndex": true,
        "inView": true
    },
    {
        "name": "created_at",
        "dbType": "datetime",
        "htmlType": "date",
        "validations": "required",
        "searchable": false,
        "fillable": false,
        "primary": false,
        "inForm": false,
        "inIndex": false,
        "inView": false
    },
    {
        "name": "updated_at",
        "dbType": "datetime:nullable",
        "htmlType": "date",
        "validations": "nullable",
        "searchable": false,
        "fillable": false,
        "primary": false,
        "inForm": false,
        "inIndex": false,
        "inView": false
    },
    {
        "name": "deleted_at",
        "dbType": "datetime:nullable",
        "htmlType": "date",
        "validations": "nullable",
        "searchable": false,
        "fillable": false,
        "primary": false,
        "inForm": false,
        "inIndex": false,
        "inView": false
    },
    {
        "type": "relation",
        "relation": "mt1,City,city_id"
    },
    {
        "type": "relation",
        "relation": "mt1,Country,country_id"
    },
    {
        "type": "relation",
        "relation": "mt1,Timezone,timezone_id"
    },
    {
        "type": "relation",
        "relation": "1tm,FlightLeg,arrive_from"
    },
    {
        "type": "relation",
        "relation": "1tm,FlightLeg,depart_for"
    }
]